…
breastcancer_clean = breastcancer_1|>
  mutate(node_positive_prop = reginol_node_positive/regional_node_examined,
         node_positive_prop = round(node_positive_prop, 4))
  
breastcancer_clean
```

    ## # A tibble: 4,024 × 17
    ##      age race  marital_status t_stage n_stage x6th_stage differentiate     grade
    ##    <dbl> <fct> <fct>          <fct>   <fct>   <fct>      <fct>             <fct>
    ##  1    68 White Married        T1      N1      IIA        Poorly different… 3    
    ##  2    50 White Married        T2      N2      IIIA       Moderately diffe… 2    
    ##  3    58 White Divorced       T3      N3      IIIC       Moderately diffe… 2    
    ##  4    58 White Married        T1      N1      IIA        Poorly different… 3    
    ##  5    47 White Married        T2      N1      IIB        Poorly different… 3    
    ##  6    51 White Single         T1      N1      IIA        Moderately diffe… 2    
    ##  7    51 White Married        T1      N1      IIA        Well differentia… 1    
    ##  8    40 White Married        T2      N1      IIB        Moderately diffe… 2    
    ##  9    40 White Divorced       T4      N3      IIIC       Poorly different… 3    
    ## 10    69 White Married        T4      N3      IIIC       Well differentia… 1    
    ## # ℹ 4,014 more rows
    ## # ℹ 9 more variables: a_stage <fct>, tumor_size <dbl>, estrogen_status <fct>,
    ## #   progesterone_status <fct>, regional_node_examined <dbl>,
    ## #   reginol_node_positive <dbl>, survival_months <dbl>, status <fct>,
    ## #   node_positive_prop <dbl>
…
